…
``` r
results <- janitor::clean_names(results)
```

``` r
anti_join(results, bakes, by = "baker")
```

    ## # A tibble: 228 × 5
    ##    series episode baker  technical result    
    ##     <dbl>   <dbl> <chr>      <dbl> <chr>     
    ##  1      2       1 Joanne        11 IN        
    ##  2      2       2 Joanne        10 IN        
    ##  3      2       3 Joanne         1 IN        
    ##  4      2       4 Joanne         8 IN        
    ##  5      2       5 Joanne         6 IN        
    ##  6      2       6 Joanne         1 STAR BAKER
    ##  7      2       7 Joanne         3 IN        
    ##  8      2       8 Joanne         1 WINNER    
    ##  9      9       1 Antony        12 IN        
    ## 10      9       1 Briony         2 IN        
    ## # ℹ 218 more rows
…
By using `anti_join()`, from results into bakes, I found that *Jo* is
the baker name appears in the bakes dataset and didn’t appear in the
results dataset.

``` r
anti_join(bakers, bakes, by = "baker")
```

    ## # A tibble: 22 × 6
    ##    baker  last_name       series baker_age baker_occupation             hometown
    ##    <chr>  <chr>            <dbl>     <dbl> <chr>                        <chr>   
    ##  1 Alice  Fevronia            10        28 Geography teacher            Essex   
    ##  2 Amelia LeBruin             10        24 Fashion designer             Halifax 
    ##  3 Antony Amourdoux            9        30 Banker                       London  
    ##  4 Briony Williams             9        33 Full-time parent             Bristol 
    ##  5 Dan    Beasley-Harling      9        36 Full-time parent             London  
    ##  6 Dan    Chambers            10        32 Support worker               Rotherh…
    ##  7 Helena Garcia              10        40 Online project manager       Leeds   
    ##  8 Henry  Bird                10        20 Student                      Durham  
    ##  9 Imelda McCarron             9        33 Countryside recreation offi… County …
    ## 10 Jamie  Finn                10        20 Part-time waiter             Surrey  
    ## # ℹ 12 more rows
…
